module github.com/Zheol

go 1.21.1

require gorm.io/gorm v1.25.5

require (
	github.com/go-sql-driver/mysql v1.7.1 // indirect
	github.com/jackc/pgpassfile v1.0.0 // indirect
	github.com/jackc/pgservicefile v0.0.0-20221227161230-091c0ba34f0a // indirect
	github.com/jackc/pgx/v5 v5.4.3 // indirect
	golang.org/x/crypto v0.14.0 // indirect
	golang.org/x/text v0.13.0 // indirect
)

require (
	github.com/jinzhu/inflection v1.0.0 // indirect
	github.com/jinzhu/now v1.1.5 // indirect
	github.com/streadway/amqp v1.1.0
	gorm.io/driver/mysql v1.5.2
	gorm.io/driver/postgres v1.5.4
)
